<?xml version="1.0" encoding="UTF-8" standalone="no"?>
<!-- Created with Inkscape (http://www.inkscape.org/) -->

<svg
   width="32"
   height="32"
   viewBox="0 0 8.4666665 8.4666669"
   version="1.1"
   id="svg5"
   inkscape:version="1.1.2 (0a00cf5339, 2022-02-04)"
   sodipodi:docname="freebsd.svg"
   inkscape:export-filename="/home/tgy-tutorials/Scrivania/freebsd.png"
   inkscape:export-xdpi="96"
   inkscape:export-ydpi="96"
   xmlns:inkscape="http://www.inkscape.org/namespaces/inkscape"
   xmlns:sodipodi="http://sodipodi.sourceforge.net/DTD/sodipodi-0.dtd"
   xmlns="http://www.w3.org/2000/svg"
   xmlns:svg="http://www.w3.org/2000/svg">
  <sodipodi:namedview
     id="namedview7"
     pagecolor="#8c8c8c"
     bordercolor="#666666"
     borderopacity="1.0"
     inkscape:pageshadow="2"
     inkscape:pageopacity="0"
     inkscape:pagecheckerboard="0"
     inkscape:document-units="px"
     showgrid="false"
     units="px"
     inkscape:showpageshadow="false"
     inkscape:zoom="17.701236"
     inkscape:cx="2.8811547"
     inkscape:cy="16.806736"
     inkscape:window-width="1920"
     inkscape:window-height="996"
     inkscape:window-x="0"
     inkscape:window-y="28"
     inkscape:window-maximized="1"
     inkscape:current-layer="layer1" />
  <defs
     id="defs2">
    <inkscape:path-effect
       is_visible="true"
       id="path-effect2991"
       effect="spiro" />
    <inkscape:path-effect
       effect="spiro"
       id="path-effect3177"
       is_visible="true" />
  </defs>
  <g
     inkscape:label="Livello 1"
     inkscape:groupmode="layer"
     id="layer1">
    <path
       id="path5310"
       style="fill:#e6e6e6;fill-opacity:1;stroke-width:1.7969"
       d="M 16 3.4335938 A 12.566 12.566 0 0 0 3.4335938 16 A 12.566 12.566 0 0 0 16 28.566406 A 12.566 12.566 0 0 0 28.566406 16 A 12.566 12.566 0 0 0 16 3.4335938 z M 8.5761719 7.8261719 C 9.433508 7.8438016 10.761737 8.463379 11.769531 9.0351562 A 8.2630458 8.2630458 0 0 0 8.9394531 11.951172 C 8.1690036 10.605035 7.2899686 8.6492238 7.90625 8.0332031 C 8.0583004 7.8811201 8.2903932 7.8202953 8.5761719 7.8261719 z M 23.505859 7.9160156 C 23.764627 7.9118311 23.973831 7.9679408 24.111328 8.1054688 C 24.991507 8.9851262 22.551199 12.85095 22.138672 13.263672 C 21.72621 13.675547 20.678551 13.297966 19.798828 12.417969 C 18.918649 11.538311 18.540598 10.490652 18.953125 10.078125 C 19.300974 9.7299455 22.108512 7.9386123 23.505859 7.9160156 z M 16.210938 8.1953125 C 17.541304 8.1953125 18.795347 8.5203422 19.898438 9.0957031 C 19.627177 9.2469387 19.379478 9.3948071 19.169922 9.5273438 C 18.848554 9.4695472 18.586534 9.513272 18.421875 9.6777344 C 18.119731 9.9799454 18.219385 10.612929 18.619141 11.330078 C 18.824524 11.734786 19.145873 12.175038 19.558594 12.587891 A 5.8241793 5.8241793 0 0 0 19.794922 12.810547 C 20.936261 13.896759 22.201228 14.396624 22.669922 13.927734 C 22.870615 13.727433 22.893269 13.380566 22.769531 12.960938 C 22.894897 12.758356 23.032629 12.523332 23.173828 12.265625 C 23.827184 13.424102 24.201172 14.760502 24.201172 16.185547 C 24.201172 20.597713 20.623559 24.173828 16.210938 24.173828 C 11.798445 24.173828 8.2207031 20.597713 8.2207031 16.185547 C 8.2207031 11.772599 11.79838 8.1953125 16.210938 8.1953125 z "
       transform="scale(0.26458333)" />
  </g>
  <style
     type="text/css"
     id="style884">
	.st0{fill:#FFFFFF;}
	.st1{fill:#69B53F;}
	.st2{fill:#F8F8F8;}
</style>
  <style
     id="style6566">.st0{fill:red}</style>
</svg>
