<?xml version="1.0" encoding="UTF-8" standalone="no"?>
<!-- Created with Inkscape (http://www.inkscape.org/) -->

<svg
   width="32"
   height="32"
   viewBox="0 0 8.4666665 8.4666669"
   version="1.1"
   id="svg5"
   inkscape:version="1.1.2 (0a00cf5339, 2022-02-04)"
   sodipodi:docname="kali.svg"
   inkscape:export-filename="/home/tgy-tutorials/Scrivania/kali.png"
   inkscape:export-xdpi="96"
   inkscape:export-ydpi="96"
   xmlns:inkscape="http://www.inkscape.org/namespaces/inkscape"
   xmlns:sodipodi="http://sodipodi.sourceforge.net/DTD/sodipodi-0.dtd"
   xmlns="http://www.w3.org/2000/svg"
   xmlns:svg="http://www.w3.org/2000/svg">
  <sodipodi:namedview
     id="namedview7"
     pagecolor="#8c8c8c"
     bordercolor="#666666"
     borderopacity="1.0"
     inkscape:pageshadow="2"
     inkscape:pageopacity="0"
     inkscape:pagecheckerboard="0"
     inkscape:document-units="px"
     showgrid="false"
     units="px"
     inkscape:showpageshadow="false"
     inkscape:zoom="11.071906"
     inkscape:cx="20.863616"
     inkscape:cy="15.399336"
     inkscape:window-width="1920"
     inkscape:window-height="996"
     inkscape:window-x="0"
     inkscape:window-y="28"
     inkscape:window-maximized="1"
     inkscape:current-layer="layer1" />
  <defs
     id="defs2" />
  <g
     inkscape:label="Livello 1"
     inkscape:groupmode="layer"
     id="layer1">
    <path
       id="path4429"
       style="fill:#e6e6e6;fill-opacity:1;stroke:none;stroke-width:0.306337"
       d="M 4.2334407,0.90857917 A 3.3247541,3.3247541 0 0 0 0.90857917,4.2329241 3.3247541,3.3247541 0 0 0 4.2334407,7.5577858 3.3247541,3.3247541 0 0 0 7.5583023,4.2329241 3.3247541,3.3247541 0 0 0 4.2334407,0.90857917 Z M 2.6707454,2.3338152 c 0.7877842,0.00301 1.2325736,0.069349 1.6681151,0.2464966 l 0.160197,0.064595 v 0.1917195 c 0,0.1044445 0.010993,0.1705177 0.035657,0.2175578 0.024655,0.04704 0.065569,0.081334 0.1395265,0.1204062 0.083979,0.044654 0.1269463,0.054777 0.2247924,0.054777 0.08629,0 0.2132663,0.035758 0.3141927,0.069246 0.1317442,0.043852 0.3920188,0.1780465 0.569991,0.2888712 l 0.1674315,0.01757 c 0.010774,0.00478 0.021766,0.01111 0.031006,0.01912 0.040062,0.023123 0.058902,0.1583035 0.1421101,0.2356445 -0.091681,0.015149 0.088941,0.1581937 0.2253094,0.1741496 C 6.2573915,4.0650636 6.2250994,4.0680608 6.1480525,4.1709124 6.0756305,4.0728474 6.0338565,4.0428567 5.9506484,3.9926287 5.9021098,3.9647287 5.7928763,3.9261726 5.7666805,3.9006446 5.7405023,3.8751329 5.7387135,3.8304518 5.7294734,3.7993588 5.7217624,3.7738308 5.7195143,3.7678072 5.6948501,3.7502662 5.6701949,3.7327252 5.6206747,3.7084377 5.5336199,3.6701677 5.3340738,3.58247 5.2196746,3.5347315 5.1326105,3.5084205 5.0455523,3.4821295 4.9876064,3.4779314 4.8943823,3.4779314 c -0.6579518,0 -0.7011979,0.9562114 -0.057878,1.0144084 0.063946,0.0056 0.2406333,0.020671 0.2537312,0.020671 0.1802828,0 0.3987543,0.034556 0.4950603,0.055294 0.4044807,0.086109 0.7637806,0.2819917 0.9332764,0.5203816 0.04546,0.064582 0.093797,0.1636871 0.129191,0.252181 0.01617,0.039066 0.03005,0.078708 0.040824,0.1193726 0.00463,0.015155 0.00718,0.03058 0.00878,0.046509 7.929e-4,0.014353 0.00426,0.030725 -0.014986,0.050643 C 6.6708232,5.567669 6.6556692,5.572488 6.6410402,5.569278 6.6310052,5.566898 6.6223762,5.561788 6.6162352,5.553775 6.6069979,5.5425988 6.5994004,5.5288436 6.5955703,5.5144995 6.5015747,5.2274723 6.2442989,4.9819078 5.9268775,4.8726783 6.1711056,5.0903385 6.366584,5.4090368 6.4405411,5.7175881 c 0.020043,0.084513 0.034685,0.1702041 0.043925,0.2563151 0.00312,0.029501 0.0047,0.059625 0.0031,0.089917 0,0.011959 -0.00237,0.022931 -0.0062,0.034107 -0.00233,0.00795 -0.00603,0.014544 -0.011369,0.020154 -0.00848,0.00873 -0.019957,0.013618 -0.031523,0.014469 -0.015413,-8.191e-4 -0.029517,-0.00791 -0.038757,-0.020671 -0.00615,-0.00798 -0.0098,-0.016795 -0.012919,-0.026355 -0.00623,-0.019936 -0.00878,-0.040757 -0.00878,-0.061495 0,-0.018338 -0.00654,-0.059843 -0.019637,-0.1100709 C 6.3452777,5.8637288 6.3267237,5.8048191 6.3051488,5.7434262 6.2620024,5.6214417 6.2061682,5.4898403 6.1599381,5.4101132 6.0436005,5.2083964 5.8974198,5.0488087 5.727923,4.9403746 5.5021831,4.795271 5.380655,4.7619653 5.04166,4.7476213 4.9438144,4.7444253 4.8457297,4.7348531 4.7486548,4.7197161 4.1014816,4.6080949 3.917392,3.7246803 4.5021582,3.3435727 L 4.4406632,3.1983619 c -0.013873,-0.032687 -0.026166,-0.061393 -0.036174,-0.083716 -0.7057268,0.030299 -1.203521,0.2273163 -1.7921385,0.4991943 -0.100929,0.051028 -0.1934295,0.095747 -0.2619994,0.1276408 -0.03389,0.015146 -0.061873,0.02787 -0.082682,0.03669 -0.01001,0.00395 -0.018422,0.00707 -0.025322,0.0093 -0.00387,0.00152 -0.00705,0.00225 -0.010852,0.0031 -0.0031,8.512e-4 -0.00569,0.00103 -0.00878,0.00103 -0.00463,0 -0.014045,0.00246 -0.027905,-0.011885 -0.00995,-0.011958 -0.013952,-0.028788 -0.010852,-0.043925 0.00157,-0.00719 0.00555,-0.014261 0.010852,-0.020671 0.00923,-0.011165 0.019202,-0.020636 0.029972,-0.029455 0.032359,-0.02551 0.066099,-0.050541 0.1007692,-0.072864 C 2.428784,3.5458342 2.5352417,3.4851666 2.6438735,3.4293556 3.0514388,3.2204631 3.6994769,3.0030976 4.0985651,2.9353289 c -0.019259,-9.791e-4 -0.031384,-0.00225 -0.052193,-0.0031 -0.1910702,-0.00726 -0.4260892,-0.00825 -0.5978964,-0.00103 -0.3759769,0.015948 -0.8222321,0.057419 -1.2975952,0.120406 -0.090911,0.01194 -0.1740144,0.021494 -0.2356446,0.027905 -0.03081,0.00321 -0.056441,0.00535 -0.074931,0.0062 -0.00925,8.504e-4 -0.017154,0.00103 -0.023254,0.00103 -0.00311,0 -0.00672,-1.831e-4 -0.00982,-0.00103 -0.0024,-8.407e-4 -0.00565,-6.99e-4 -0.00775,-0.00155 -0.00692,-7.924e-4 -0.01297,-0.00472 -0.01757,-0.010335 -0.00467,-0.00478 -0.00875,-0.011159 -0.010852,-0.01757 -0.0022,-0.010373 -0.00225,-0.020409 0.00155,-0.029972 0.00462,-0.011184 0.013235,-0.02103 0.024805,-0.025838 0.01849,-0.00798 0.036804,-0.01408 0.056844,-0.018087 0.052388,-0.012751 0.1425149,-0.03073 0.2935219,-0.059428 C 2.647025,2.8288427 3.2203337,2.7723595 3.9838437,2.742059 l 0.1648475,-0.0062 -0.039274,-0.013436 C 3.6687238,2.5709365 3.1383816,2.4861736 2.2862728,2.4335507 2.2146207,2.4296063 2.160756,2.4254414 2.1276262,2.4232154 c -0.01696,-0.00178 -0.026973,-0.00244 -0.036173,-0.00413 -0.0031,0 -0.0062,-3.75e-4 -0.0093,-0.00207 -0.00622,-0.00158 -0.011186,-0.00576 -0.014986,-0.011369 -0.00691,-0.00797 -0.010335,-0.018067 -0.010335,-0.028422 8.001e-4,-0.00957 0.00499,-0.018626 0.011886,-0.025838 0.00385,-0.00475 0.0094,-0.00845 0.015503,-0.0093 0.0023,-8.417e-4 0.00358,-0.00155 0.00568,-0.00155 0.0024,0 0.00565,-0.00103 0.00775,-0.00103 0.019264,-0.00151 0.055443,-0.00225 0.1224732,-0.0031 0.06703,-5.34e-4 0.1620015,-0.00122 0.2883546,-0.00207 0.055664,-3.489e-4 0.1097449,-7.176e-4 0.1622639,-5.168e-4 z m 2.372465,0.651123 c 0.00443,1.731e-4 0.00869,7.043e-4 0.012919,0.00155 0.019259,0.00399 0.038092,0.00829 0.055811,0.015503 0.2935388,0.1068353 0.5768139,0.2800391 0.8056353,0.5048788 0.00924,0.00878 0.017571,0.018584 0.025321,0.028939 0.0031,0.00478 0.00618,0.00914 0.0093,0.013953 0.00472,0.00719 0.00723,0.015985 0.00723,0.024805 L 5.8111223,3.5497616 C 5.7394728,3.5385991 5.7236695,3.4877644 5.6612604,3.4407244 5.4794382,3.2860495 5.2989038,3.210292 5.070082,3.0970761 5.052372,3.0875131 5.038508,3.0786824 5.027707,3.0722714 c -0.0054,-0.00395 -0.010123,-0.0061 -0.013952,-0.0093 -0.00232,-0.0016 -0.00458,-0.00346 -0.00672,-0.00568 -0.00222,-0.0016 -0.00408,-0.00449 -0.00568,-0.00672 -0.00481,-0.00637 -0.00753,-0.014724 -0.00672,-0.022738 0,-0.011976 0.00549,-0.023224 0.013953,-0.032039 0.00615,-0.00555 0.013954,-0.00864 0.021704,-0.010335 0.00424,-6.879e-4 0.00849,-6.898e-4 0.012918,-5.169e-4 z" />
  </g>
  <style
     type="text/css"
     id="style884">
	.st0{fill:#FFFFFF;}
	.st1{fill:#69B53F;}
	.st2{fill:#F8F8F8;}
</style>
  <style
     type="text/css"
     id="style5709">
	.st0{fill:url(#SVGID_1_);}
	.st1{opacity:0.3;enable-background:new    ;}
	.st2{opacity:0.1;fill:#FFFFFF;enable-background:new    ;}
	.st3{fill:url(#SVGID_2_);}
	.st4{fill:#FFFFFF;}
</style>
</svg>
